<svg width="64" height="64" viewBox="0 0 64 64" fill="none" xmlns="http://www.w3.org/2000/svg">
<g clip-path="url(#clip0_3428_17134)">
<rect width="64" height="64" rx="32" fill="#E8DEFF"/>
<rect x="19" y="16" width="26" height="26" rx="13" fill="#8b5cf6"/>
<rect x="-16" y="48" width="96" height="96" rx="48" fill="#8b5cf6"/>
</g>
<rect x="0.5" y="0.5" width="63" height="63" rx="31.5" stroke="#E8DEFF"/>
<defs>
<clipPath id="clip0_3428_17134">
<rect width="64" height="64" rx="32" fill="white"/>
</clipPath>
</defs>
</svg>
